{
    "Meta": {
        "train": "data/ml-1m/rb.train",
        "test": "data/ml-1m/rb.test",
        "k": 10,
        "users": 6040,
        "movies": 3952,
        "master": "local[4]",
        "num-executors": "",
        "num_measurements": 1
    },
    "EK.1": {
        "1.knn_u1v1": 0,
        "2.knn_u1v864": 0,
        "3.knn_u1v886": 0,
        "4.PredUser1Item1": 5,
        "5.PredUser327Item2": 3.6946902654867255,
        "6.Mae": 0.8151961898004276
    },
    "EK.2": {
        "average (ms)": 12334.5529,
        "stddev (ms)": 0
    }
}